<svg id="mermaid-1592551005950" width="2099.72509765625" xmlns="http://www.w3.org/2000/svg" height="1088" viewBox="-20 -20 2099.72509765625 1088"><style>



#mermaid-1592551005950 .label {
  font-family: 'trebuchet ms', verdana, arial;
  font-family: var(--mermaid-font-family);
  color: #333; }

#mermaid-1592551005950 .label text {
  fill: #333; }

#mermaid-1592551005950 .node rect,
#mermaid-1592551005950 .node circle,
#mermaid-1592551005950 .node ellipse,
#mermaid-1592551005950 .node polygon,
#mermaid-1592551005950 .node path {
  fill: #eee;
  stroke: #999;
  stroke-width: 1px; }

#mermaid-1592551005950 .node .label {
  text-align: center; }

#mermaid-1592551005950 .node.clickable {
  cursor: pointer; }

#mermaid-1592551005950 .arrowheadPath {
  fill: #333333; }

#mermaid-1592551005950 .edgePath .path {
  stroke: #666;
  stroke-width: 1.5px; }

#mermaid-1592551005950 .edgeLabel {
  background-color: white;
  text-align: center; }
#mermaid-1592551005950   .edgeLabel rect {
    opacity: 0.5; }

#mermaid-1592551005950 .cluster rect {
  fill: #eaf2fb;
  stroke: #26a;
  stroke-width: 1px; }

#mermaid-1592551005950 .cluster text {
  fill: #333; }

#mermaid-1592551005950 div.mermaidTooltip {
  position: absolute;
  text-align: center;
  max-width: 200px;
  padding: 2px;
  font-family: 'trebuchet ms', verdana, arial;
  font-family: var(--mermaid-font-family);
  font-size: 12px;
  background: #eaf2fb;
  border: 1px solid #26a;
  border-radius: 2px;
  pointer-events: none;
  z-index: 100; }

#mermaid-1592551005950 .actor {
  stroke: #999;
  fill: #eee; }

#mermaid-1592551005950 text.actor {
  fill: #333;
  stroke: none; }

#mermaid-1592551005950 .actor-line {
  stroke: #666; }

#mermaid-1592551005950 .messageLine0 {
  stroke-width: 1.5;
  stroke-dasharray: '2 2';
  stroke: #333; }

#mermaid-1592551005950 .messageLine1 {
  stroke-width: 1.5;
  stroke-dasharray: '2 2';
  stroke: #333; }

#mermaid-1592551005950 #arrowhead {
  fill: #333; }

#mermaid-1592551005950 .sequenceNumber {
  fill: white; }

#mermaid-1592551005950 #sequencenumber {
  fill: #333; }

#mermaid-1592551005950 #crosshead path {
  fill: #333 !important;
  stroke: #333 !important; }

#mermaid-1592551005950 .messageText {
  fill: #333;
  stroke: none; }

#mermaid-1592551005950 .labelBox {
  stroke: #999;
  fill: #eee; }

#mermaid-1592551005950 .labelText {
  fill: #333;
  stroke: none; }

#mermaid-1592551005950 .loopText {
  fill: #333;
  stroke: none; }

#mermaid-1592551005950 .loopLine {
  stroke-width: 2;
  stroke-dasharray: '2 2';
  stroke: #999; }

#mermaid-1592551005950 .note {
  stroke: #777700;
  fill: #ffa; }

#mermaid-1592551005950 .noteText {
  fill: black;
  stroke: none;
  font-family: 'trebuchet ms', verdana, arial;
  font-family: var(--mermaid-font-family);
  font-size: 14px; }

#mermaid-1592551005950 .activation0 {
  fill: #f4f4f4;
  stroke: #666; }

#mermaid-1592551005950 .activation1 {
  fill: #f4f4f4;
  stroke: #666; }

#mermaid-1592551005950 .activation2 {
  fill: #f4f4f4;
  stroke: #666; }


#mermaid-1592551005950 .mermaid-main-font {
  font-family: "trebuchet ms", verdana, arial;
  font-family: var(--mermaid-font-family); }

#mermaid-1592551005950 .section {
  stroke: none;
  opacity: 0.2; }

#mermaid-1592551005950 .section0 {
  fill: #80b3e6; }

#mermaid-1592551005950 .section2 {
  fill: #80b3e6; }

#mermaid-1592551005950 .section1,
#mermaid-1592551005950 .section3 {
  fill: white;
  opacity: 0.2; }

#mermaid-1592551005950 .sectionTitle0 {
  fill: #333; }

#mermaid-1592551005950 .sectionTitle1 {
  fill: #333; }

#mermaid-1592551005950 .sectionTitle2 {
  fill: #333; }

#mermaid-1592551005950 .sectionTitle3 {
  fill: #333; }

#mermaid-1592551005950 .sectionTitle {
  text-anchor: start;
  font-size: 11px;
  text-height: 14px;
  font-family: 'trebuchet ms', verdana, arial;
  font-family: var(--mermaid-font-family); }


#mermaid-1592551005950 .grid .tick {
  stroke: #e6e6e6;
  opacity: 0.8;
  shape-rendering: crispEdges; }
#mermaid-1592551005950   .grid .tick text {
    font-family: 'trebuchet ms', verdana, arial;
    font-family: var(--mermaid-font-family); }

#mermaid-1592551005950 .grid path {
  stroke-width: 0; }


#mermaid-1592551005950 .today {
  fill: none;
  stroke: #d42;
  stroke-width: 2px; }



#mermaid-1592551005950 .task {
  stroke-width: 2; }

#mermaid-1592551005950 .taskText {
  text-anchor: middle;
  font-family: 'trebuchet ms', verdana, arial;
  font-family: var(--mermaid-font-family); }

#mermaid-1592551005950 .taskText:not([font-size]) {
  font-size: 11px; }

#mermaid-1592551005950 .taskTextOutsideRight {
  fill: #333;
  text-anchor: start;
  font-size: 11px;
  font-family: 'trebuchet ms', verdana, arial;
  font-family: var(--mermaid-font-family); }

#mermaid-1592551005950 .taskTextOutsideLeft {
  fill: #333;
  text-anchor: end;
  font-size: 11px; }


#mermaid-1592551005950 .task.clickable {
  cursor: pointer; }

#mermaid-1592551005950 .taskText.clickable {
  cursor: pointer;
  fill: #003163 !important;
  font-weight: bold; }

#mermaid-1592551005950 .taskTextOutsideLeft.clickable {
  cursor: pointer;
  fill: #003163 !important;
  font-weight: bold; }

#mermaid-1592551005950 .taskTextOutsideRight.clickable {
  cursor: pointer;
  fill: #003163 !important;
  font-weight: bold; }


#mermaid-1592551005950 .taskText0,
#mermaid-1592551005950 .taskText1,
#mermaid-1592551005950 .taskText2,
#mermaid-1592551005950 .taskText3 {
  fill: white; }

#mermaid-1592551005950 .task0,
#mermaid-1592551005950 .task1,
#mermaid-1592551005950 .task2,
#mermaid-1592551005950 .task3 {
  fill: #26a;
  stroke: #1a4d80; }

#mermaid-1592551005950 .taskTextOutside0,
#mermaid-1592551005950 .taskTextOutside2 {
  fill: #333; }

#mermaid-1592551005950 .taskTextOutside1,
#mermaid-1592551005950 .taskTextOutside3 {
  fill: #333; }


#mermaid-1592551005950 .active0,
#mermaid-1592551005950 .active1,
#mermaid-1592551005950 .active2,
#mermaid-1592551005950 .active3 {
  fill: #eee;
  stroke: #1a4d80; }

#mermaid-1592551005950 .activeText0,
#mermaid-1592551005950 .activeText1,
#mermaid-1592551005950 .activeText2,
#mermaid-1592551005950 .activeText3 {
  fill: #333 !important; }


#mermaid-1592551005950 .done0,
#mermaid-1592551005950 .done1,
#mermaid-1592551005950 .done2,
#mermaid-1592551005950 .done3 {
  stroke: #666;
  fill: #bbb;
  stroke-width: 2; }

#mermaid-1592551005950 .doneText0,
#mermaid-1592551005950 .doneText1,
#mermaid-1592551005950 .doneText2,
#mermaid-1592551005950 .doneText3 {
  fill: #333 !important; }


#mermaid-1592551005950 .crit0,
#mermaid-1592551005950 .crit1,
#mermaid-1592551005950 .crit2,
#mermaid-1592551005950 .crit3 {
  stroke: #b1361b;
  fill: #d42;
  stroke-width: 2; }

#mermaid-1592551005950 .activeCrit0,
#mermaid-1592551005950 .activeCrit1,
#mermaid-1592551005950 .activeCrit2,
#mermaid-1592551005950 .activeCrit3 {
  stroke: #b1361b;
  fill: #eee;
  stroke-width: 2; }

#mermaid-1592551005950 .doneCrit0,
#mermaid-1592551005950 .doneCrit1,
#mermaid-1592551005950 .doneCrit2,
#mermaid-1592551005950 .doneCrit3 {
  stroke: #b1361b;
  fill: #bbb;
  stroke-width: 2;
  cursor: pointer;
  shape-rendering: crispEdges; }

#mermaid-1592551005950 .milestone {
  transform: rotate(45deg) scale(0.8, 0.8); }

#mermaid-1592551005950 .milestoneText {
  font-style: italic; }

#mermaid-1592551005950 .doneCritText0,
#mermaid-1592551005950 .doneCritText1,
#mermaid-1592551005950 .doneCritText2,
#mermaid-1592551005950 .doneCritText3 {
  fill: #333 !important; }

#mermaid-1592551005950 .activeCritText0,
#mermaid-1592551005950 .activeCritText1,
#mermaid-1592551005950 .activeCritText2,
#mermaid-1592551005950 .activeCritText3 {
  fill: #333 !important; }

#mermaid-1592551005950 .titleText {
  text-anchor: middle;
  font-size: 18px;
  fill: #333;
  font-family: 'trebuchet ms', verdana, arial;
  font-family: var(--mermaid-font-family); }

#mermaid-1592551005950 g.classGroup text {
  fill: #999;
  stroke: none;
  font-family: 'trebuchet ms', verdana, arial;
  font-family: var(--mermaid-font-family);
  font-size: 10px; }
#mermaid-1592551005950   g.classGroup text .title {
    font-weight: bolder; }

#mermaid-1592551005950 g.clickable {
  cursor: pointer; }

#mermaid-1592551005950 g.classGroup rect {
  fill: #eee;
  stroke: #999; }

#mermaid-1592551005950 g.classGroup line {
  stroke: #999;
  stroke-width: 1; }

#mermaid-1592551005950 .classLabel .box {
  stroke: none;
  stroke-width: 0;
  fill: #eee;
  opacity: 0.5; }

#mermaid-1592551005950 .classLabel .label {
  fill: #999;
  font-size: 10px; }

#mermaid-1592551005950 .relation {
  stroke: #999;
  stroke-width: 1;
  fill: none; }

#mermaid-1592551005950 .dashed-line {
  stroke-dasharray: 3; }

#mermaid-1592551005950 #compositionStart {
  fill: #999;
  stroke: #999;
  stroke-width: 1; }

#mermaid-1592551005950 #compositionEnd {
  fill: #999;
  stroke: #999;
  stroke-width: 1; }

#mermaid-1592551005950 #aggregationStart {
  fill: #eee;
  stroke: #999;
  stroke-width: 1; }

#mermaid-1592551005950 #aggregationEnd {
  fill: #eee;
  stroke: #999;
  stroke-width: 1; }

#mermaid-1592551005950 #dependencyStart {
  fill: #999;
  stroke: #999;
  stroke-width: 1; }

#mermaid-1592551005950 #dependencyEnd {
  fill: #999;
  stroke: #999;
  stroke-width: 1; }

#mermaid-1592551005950 #extensionStart {
  fill: #999;
  stroke: #999;
  stroke-width: 1; }

#mermaid-1592551005950 #extensionEnd {
  fill: #999;
  stroke: #999;
  stroke-width: 1; }

#mermaid-1592551005950 .commit-id,
#mermaid-1592551005950 .commit-msg,
#mermaid-1592551005950 .branch-label {
  fill: lightgrey;
  color: lightgrey;
  font-family: 'trebuchet ms', verdana, arial;
  font-family: var(--mermaid-font-family); }

#mermaid-1592551005950 .pieTitleText {
  text-anchor: middle;
  font-size: 25px;
  fill: #333;
  font-family: 'trebuchet ms', verdana, arial;
  font-family: var(--mermaid-font-family); }

#mermaid-1592551005950 .slice {
  font-family: 'trebuchet ms', verdana, arial;
  font-family: var(--mermaid-font-family); }

#mermaid-1592551005950 g.stateGroup text {
  fill: #999;
  stroke: none;
  font-size: 10px;
  font-family: 'trebuchet ms', verdana, arial;
  font-family: var(--mermaid-font-family); }

#mermaid-1592551005950 g.stateGroup text {
  fill: #999;
  stroke: none;
  font-size: 10px; }

#mermaid-1592551005950 g.stateGroup .state-title {
  font-weight: bolder;
  fill: black; }

#mermaid-1592551005950 g.stateGroup rect {
  fill: #eee;
  stroke: #999; }

#mermaid-1592551005950 g.stateGroup line {
  stroke: #999;
  stroke-width: 1; }

#mermaid-1592551005950 .transition {
  stroke: #999;
  stroke-width: 1;
  fill: none; }

#mermaid-1592551005950 .stateGroup .composit {
  fill: white;
  border-bottom: 1px; }

#mermaid-1592551005950 .stateGroup .alt-composit {
  fill: #e0e0e0;
  border-bottom: 1px; }

#mermaid-1592551005950 .state-note {
  stroke: #777700;
  fill: #ffa; }
#mermaid-1592551005950   .state-note text {
    fill: black;
    stroke: none;
    font-size: 10px; }

#mermaid-1592551005950 .stateLabel .box {
  stroke: none;
  stroke-width: 0;
  fill: #eee;
  opacity: 0.5; }

#mermaid-1592551005950 .stateLabel text {
  fill: black;
  font-size: 10px;
  font-weight: bold;
  font-family: 'trebuchet ms', verdana, arial;
  font-family: var(--mermaid-font-family); }

#mermaid-1592551005950 .node circle.state-start {
  fill: black;
  stroke: black; }

#mermaid-1592551005950 .node circle.state-end {
  fill: black;
  stroke: white;
  stroke-width: 1.5; }

#mermaid-1592551005950 #statediagram-barbEnd {
  fill: #999; }

#mermaid-1592551005950 .statediagram-cluster rect {
  fill: #eee;
  stroke: #999;
  stroke-width: 1px; }

#mermaid-1592551005950 .statediagram-cluster rect.outer {
  rx: 5px;
  ry: 5px; }

#mermaid-1592551005950 .statediagram-state .divider {
  stroke: #999; }

#mermaid-1592551005950 .statediagram-state .title-state {
  rx: 5px;
  ry: 5px; }

#mermaid-1592551005950 .statediagram-cluster.statediagram-cluster .inner {
  fill: white; }

#mermaid-1592551005950 .statediagram-cluster.statediagram-cluster-alt .inner {
  fill: #e0e0e0; }

#mermaid-1592551005950 .statediagram-cluster .inner {
  rx: 0;
  ry: 0; }

#mermaid-1592551005950 .statediagram-state rect.basic {
  rx: 5px;
  ry: 5px; }

#mermaid-1592551005950 .statediagram-state rect.divider {
  stroke-dasharray: 10,10;
  fill: #efefef; }

#mermaid-1592551005950 .note-edge {
  stroke-dasharray: 5; }

#mermaid-1592551005950 .statediagram-note rect {
  fill: #ffa;
  stroke: #777700;
  stroke-width: 1px;
  rx: 0;
  ry: 0; }

:root {
  --mermaid-font-family: '"trebuchet ms", verdana, arial';
  --mermaid-font-family: "Comic Sans MS", "Comic Sans", cursive; }

:root { --mermaid-font-family: "trebuchet ms", verdana, arial;}</style><style>#mermaid-1592551005950 {
    color: rgb(0, 0, 0);
    font: ;
  }</style><g></g><defs><marker id="extensionStart" class="extension" refX="0" refY="7" markerWidth="190" markerHeight="240" orient="auto"><path d="M 1,7 L18,13 V 1 Z"></path></marker></defs><defs><marker id="extensionEnd" refX="19" refY="7" markerWidth="20" markerHeight="28" orient="auto"><path d="M 1,1 V 13 L18,7 Z"></path></marker></defs><defs><marker id="compositionStart" class="extension" refX="0" refY="7" markerWidth="190" markerHeight="240" orient="auto"><path d="M 18,7 L9,13 L1,7 L9,1 Z"></path></marker></defs><defs><marker id="compositionEnd" refX="19" refY="7" markerWidth="20" markerHeight="28" orient="auto"><path d="M 18,7 L9,13 L1,7 L9,1 Z"></path></marker></defs><defs><marker id="aggregationStart" class="extension" refX="0" refY="7" markerWidth="190" markerHeight="240" orient="auto"><path d="M 18,7 L9,13 L1,7 L9,1 Z"></path></marker></defs><defs><marker id="aggregationEnd" refX="19" refY="7" markerWidth="20" markerHeight="28" orient="auto"><path d="M 18,7 L9,13 L1,7 L9,1 Z"></path></marker></defs><defs><marker id="dependencyStart" class="extension" refX="0" refY="7" markerWidth="190" markerHeight="240" orient="auto"><path d="M 5,7 L9,13 L1,7 L9,1 Z"></path></marker></defs><defs><marker id="dependencyEnd" refX="19" refY="7" markerWidth="20" markerHeight="28" orient="auto"><path d="M 18,7 L9,13 L14,7 L9,1 Z"></path></marker></defs><g id="classid-Simulation-240" class="classGroup " transform="translate(484.20001220703125,0 )"><rect x="0" y="0" width="148.39999389648438" height="209.5"></rect><text y="15" x="0"><tspan class="title" x="45.44999694824219">Simulation</tspan></text><line x1="0" y1="21.5" y2="21.5" x2="148.39999389648438"></line><text x="5" y="31.5" fill="white" class="classText"><tspan x="5">+str version</tspan><tspan x="5" dy="10">+Config config</tspan><tspan x="5" dy="10">+MonteCarlo mc</tspan><tspan x="5" dy="10">+GasMixture gas_mixture</tspan><tspan x="5" dy="10">+float electric_field</tspan><tspan x="5" dy="10">+Electrons electrons</tspan><tspan x="5" dy="10">+Output output</tspan></text><line x1="0" y1="98" y2="98" x2="148.39999389648438"></line><text x="5" y="113" fill="white" class="classText"><tspan x="5">+apply_config()</tspan><tspan x="5" dy="10">+run()</tspan><tspan x="5" dy="10">+run_series()</tspan><tspan x="5" dy="10">+save()</tspan><tspan x="5" dy="10">+save_pickle()</tspan><tspan x="5" dy="10">+advance_one_step()</tspan><tspan x="5" dy="10">+collect_output_data()</tspan><tspan x="5" dy="10">+calculate_final_output()</tspan><tspan x="5" dy="10">+print_step_info()</tspan><tspan x="5" dy="10">+end_simulation()</tspan></text></g><g id="classid-Config-241" class="classGroup " transform="translate(0,294.5 )"><rect x="0" y="0" width="203.60000610351562" height="349.5"></rect><text y="15" x="0"><tspan class="title" x="84.55000305175781">Config</tspan></text><line x1="0" y1="21.5" y2="21.5" x2="203.60000610351562"></line><text x="5" y="31.5" fill="white" class="classText"><tspan x="5">+list[str] gases</tspan><tspan x="5" dy="10">+list[str] paths_to_cross_section_files</tspan><tspan x="5" dy="10">+list[float] fractions</tspan><tspan x="5" dy="10">+num max_cross_section_energy</tspan><tspan x="5" dy="10">+str output_directory</tspan><tspan x="5" dy="10">+str base_name</tspan><tspan x="5" dy="10">+bool save_simulation_pickle</tspan><tspan x="5" dy="10">+bool save_temporal_evolution</tspan><tspan x="5" dy="10">+bool save_swarm_parameters</tspan><tspan x="5" dy="10">+bool save_energy_distribution</tspan><tspan x="5" dy="10">+num EN</tspan><tspan x="5" dy="10">+num _pressure</tspan><tspan x="5" dy="10">+num _temperature</tspan><tspan x="5" dy="10">+float _gas_number_density</tspan><tspan x="5" dy="10">+int num_e_initial</tspan><tspan x="5" dy="10">+list[float] initial_pos_electrons</tspan><tspan x="5" dy="10">+list[float] initial_std_electrons</tspan><tspan x="5" dy="10">+int num_energy_bins</tspan><tspan x="5" dy="10">+num energy_sharing_factor</tspan><tspan x="5" dy="10">+bool isotropic_scattering</tspan><tspan x="5" dy="10">+bool conserve</tspan><tspan x="5" dy="10">+int num_e_max</tspan><tspan x="5" dy="10">+float w_tol</tspan><tspan x="5" dy="10">+float D_tol</tspan><tspan x="5" dy="10">+int num_col_max</tspan></text><line x1="0" y1="277.99998474121094" y2="277.99998474121094" x2="203.60000610351562"></line><text x="5" y="292.99998474121094" fill="white" class="classText"><tspan x="5">+pressure()</tspan><tspan x="5" dy="10">+temperature()</tspan><tspan x="5" dy="10">+gas_number_density()</tspan><tspan x="5" dy="10">+to_dict()</tspan><tspan x="5" dy="10">+save_json5()</tspan><tspan x="5" dy="10">+save_json()</tspan></text></g><g id="classid-MonteCarlo-242" class="classGroup " transform="translate(253.60000610351562,384.5 )"><rect x="0" y="0" width="174.85000610351562" height="169.5"></rect><text y="15" x="0"><tspan class="title" x="55.80000305175781">MonteCarlo</tspan></text><line x1="0" y1="21.5" y2="21.5" x2="174.85000610351562"></line><text x="5" y="31.5" fill="white" class="classText"><tspan x="5">+Config config</tspan><tspan x="5" dy="10">+float trial_coll_freq</tspan><tspan x="5" dy="10">+float max_coll_freq</tspan><tspan x="5" dy="10">+float max_coll_period</tspan><tspan x="5" dy="10">+float max_coll_period_squared</tspan><tspan x="5" dy="10">+array collision_by_electron</tspan></text><line x1="0" y1="88.00000381469727" y2="88.00000381469727" x2="174.85000610351562"></line><text x="5" y="103.00000381469727" fill="white" class="classText"><tspan x="5">+calculate_max_coll_freq()</tspan><tspan x="5" dy="10">+determine_timestep()</tspan><tspan x="5" dy="10">+determine_collisions()</tspan><tspan x="5" dy="10">+perform_collisions()</tspan><tspan x="5" dy="10">+unit_scattered_velocity()</tspan><tspan x="5" dy="10">+scattering_angles()</tspan><tspan x="5" dy="10">+velocity_from_energy()</tspan></text></g><g id="classid-GasMixture-243" class="classGroup " transform="translate(478.45001220703125,404.5 )"><rect x="0" y="0" width="159.89999389648438" height="129.5"></rect><text y="15" x="0"><tspan class="title" x="49.47499656677246">GasMixture</tspan></text><line x1="0" y1="21.5" y2="21.5" x2="159.89999389648438"></line><text x="5" y="31.5" fill="white" class="classText"><tspan x="5">+array cross_sections</tspan><tspan x="5" dy="10">+array types</tspan><tspan x="5" dy="10">+array thresholds</tspan><tspan x="5" dy="10">+array mass_ratios</tspan><tspan x="5" dy="10">+array is_ionization</tspan><tspan x="5" dy="10">+array is_attachment</tspan><tspan x="5" dy="10">+array energy_vector</tspan><tspan x="5" dy="10">+array total_cross_section</tspan></text><line x1="0" y1="108" y2="108" x2="159.89999389648438"></line><text x="5" y="123" fill="white" class="classText"><tspan x="5">+number_of_cross_sections()</tspan></text></g><g id="classid-Electrons-244" class="classGroup " transform="translate(688.3500061035156,259.5 )"><rect x="0" y="0" width="226.60000610351562" height="419.5"></rect><text y="15" x="0"><tspan class="title" x="88.00000381469727">Electrons</tspan></text><line x1="0" y1="21.5" y2="21.5" x2="226.60000610351562"></line><text x="5" y="31.5" fill="white" class="classText"><tspan x="5">+array position</tspan><tspan x="5" dy="10">+array velocity</tspan><tspan x="5" dy="10">+array acceleration</tspan><tspan x="5" dy="10">+array _mean_position</tspan><tspan x="5" dy="10">+array _std_position</tspan><tspan x="5" dy="10">+array _mean_velocity</tspan><tspan x="5" dy="10">+array _mean_velocity_moment</tspan><tspan x="5" dy="10">+array _energy</tspan><tspan x="5" dy="10">+float _mean_energy</tspan><tspan x="5" dy="10">+float _max_energy</tspan><tspan x="5" dy="10">+array _position_norm</tspan><tspan x="5" dy="10">+array _velocity_norm</tspan><tspan x="5" dy="10">+float _max_velocity_norm</tspan><tspan x="5" dy="10">+array _acceleration_norm</tspan><tspan x="5" dy="10">+EnergyDistribution _energy_distribution</tspan></text><line x1="0" y1="178" y2="178" x2="226.60000610351562"></line><text x="5" y="193" fill="white" class="classText"><tspan x="5">+accelerate()</tspan><tspan x="5" dy="10">+free_flight()</tspan><tspan x="5" dy="10">+apply_scatter()</tspan><tspan x="5" dy="10">+num_e()</tspan><tspan x="5" dy="10">+mean_position()</tspan><tspan x="5" dy="10">+var_position()</tspan><tspan x="5" dy="10">+mean_velocity()</tspan><tspan x="5" dy="10">+mean_velocity_moment()</tspan><tspan x="5" dy="10">+energy()</tspan><tspan x="5" dy="10">+mean_energy()</tspan><tspan x="5" dy="10">+std_energy()</tspan><tspan x="5" dy="10">+max_energy()</tspan><tspan x="5" dy="10">+position_norm()</tspan><tspan x="5" dy="10">+velocity_norm()</tspan><tspan x="5" dy="10">+max_velocity_norm()</tspan><tspan x="5" dy="10">+acceleration_norm()</tspan><tspan x="5" dy="10">+max_acceleration_norm()</tspan><tspan x="5" dy="10">+energy_distribution()</tspan><tspan x="5" dy="10">+reset_cache()</tspan><tspan x="5" dy="10">+plot_position()</tspan><tspan x="5" dy="10">+plot_velocity()</tspan><tspan x="5" dy="10">+plot_energy()</tspan><tspan x="5" dy="10">+plot_all()</tspan></text></g><g id="classid-Output-245" class="classGroup " transform="translate(1404.9750061035156,374.5 )"><rect x="0" y="0" width="291" height="189.5"></rect><text y="15" x="0"><tspan class="title" x="126.52499961853027">Output</tspan></text><line x1="0" y1="21.5" y2="21.5" x2="291"></line><text x="5" y="31.5" fill="white" class="classText"><tspan x="5">+Config config</tspan><tspan x="5" dy="10">+str version</tspan><tspan x="5" dy="10">+TimeSeries time_series</tspan><tspan x="5" dy="10">+TimeAveragedEnergyDistribution energy_distribution</tspan><tspan x="5" dy="10">+FluxData flux</tspan><tspan x="5" dy="10">+BulkData bulk</tspan><tspan x="5" dy="10">+ConvolutedRates rates_conv</tspan><tspan x="5" dy="10">+CountedRates rates_count</tspan></text><line x1="0" y1="108" y2="108" x2="291"></line><text x="5" y="123" fill="white" class="classText"><tspan x="5">+check_sst()</tspan><tspan x="5" dy="10">+save_temporal_evolution()</tspan><tspan x="5" dy="10">+save_swarm_parameters()</tspan><tspan x="5" dy="10">+save_energy_distribution()</tspan><tspan x="5" dy="10">+plot_temporal_evolution()</tspan><tspan x="5" dy="10">+plot_energy_distribution()</tspan><tspan x="5" dy="10">+plot_sst_line()</tspan></text></g><g id="classid-InstantaneousEnergyDistribution-246" class="classGroup " transform="translate(706.3750076293945,794.75 )"><rect x="0" y="0" width="190.5500030517578" height="48"></rect><text y="15" x="0"><tspan class="title" x="6.724998474121094">InstantaneousEnergyDistribution</tspan></text><line x1="0" y1="21.5" y2="21.5" x2="190.5500030517578"></line><text x="5" y="31.5" fill="white" class="classText"></text><line x1="0" y1="26.5" y2="26.5" x2="190.5500030517578"></line><text x="5" y="41.5" fill="white" class="classText"><tspan x="5">+calculate_distribution()</tspan></text></g><g id="classid-EnergyDistribution-247" class="classGroup " transform="translate(959.9625129699707,958.5 )"><rect x="0" y="0" width="154.14999389648438" height="89.5"></rect><text y="15" x="0"><tspan class="title" x="25.89999771118164">EnergyDistribution</tspan></text><line x1="0" y1="21.5" y2="21.5" x2="154.14999389648438"></line><text x="5" y="31.5" fill="white" class="classText"><tspan x="5">+array energy_bins</tspan><tspan x="5" dy="10">+array energy_bin_centers</tspan><tspan x="5" dy="10">+array eedf</tspan><tspan x="5" dy="10">+array eepf</tspan></text><line x1="0" y1="68" y2="68" x2="154.14999389648438"></line><text x="5" y="83" fill="white" class="classText"><tspan x="5">+calculate_bin_centers()</tspan></text></g><g id="classid-TimeSeries-248" class="classGroup " transform="translate(946.9250106811523,729 )"><rect x="0" y="0" width="172.5500030517578" height="179.5"></rect><text y="15" x="0"><tspan class="title" x="55.80000114440918">TimeSeries</tspan></text><line x1="0" y1="21.5" y2="21.5" x2="172.5500030517578"></line><text x="5" y="31.5" fill="white" class="classText"><tspan x="5">+int ind_equ</tspan><tspan x="5" dy="10">+array time</tspan><tspan x="5" dy="10">+array mean_position</tspan><tspan x="5" dy="10">+array mean_velocity</tspan><tspan x="5" dy="10">+array mean_energy</tspan><tspan x="5" dy="10">+array mean_velocity_moment</tspan><tspan x="5" dy="10">+array var_position</tspan><tspan x="5" dy="10">+array std_energy</tspan><tspan x="5" dy="10">+array num_electrons</tspan><tspan x="5" dy="10">+array num_anions</tspan><tspan x="5" dy="10">+array num_cations</tspan><tspan x="5" dy="10">+array num_collisions</tspan></text><line x1="0" y1="148" y2="148" x2="172.5500030517578"></line><text x="5" y="163" fill="white" class="classText"><tspan x="5">+append_data()</tspan><tspan x="5" dy="10">+to_dataframe()</tspan></text></g><g id="classid-TimeAveragedEnergyDistribution-249" class="classGroup " transform="translate(1169.4750137329102,779 )"><rect x="0" y="0" width="205.89999389648438" height="79.5"></rect><text y="15" x="0"><tspan class="title" x="10.949996948242188">TimeAveragedEnergyDistribution</tspan></text><line x1="0" y1="21.5" y2="21.5" x2="205.89999389648438"></line><text x="5" y="31.5" fill="white" class="classText"><tspan x="5">+array cumulative_energy_histogram</tspan></text><line x1="0" y1="38" y2="38" x2="205.89999389648438"></line><text x="5" y="53" fill="white" class="classText"><tspan x="5">+generate_bins()</tspan><tspan x="5" dy="10">+collect_histogram()</tspan><tspan x="5" dy="10">+calculate_distribution()</tspan></text></g><g id="classid-FluxData-250" class="classGroup " transform="translate(1425.3750076293945,794.75 )"><rect x="0" y="0" width="100.0999984741211" height="48"></rect><text y="15" x="0"><tspan class="title" x="27.625">FluxData</tspan></text><line x1="0" y1="21.5" y2="21.5" x2="100.0999984741211"></line><text x="5" y="31.5" fill="white" class="classText"></text><line x1="0" y1="26.5" y2="26.5" x2="100.0999984741211"></line><text x="5" y="41.5" fill="white" class="classText"><tspan x="5">+calculate_data()</tspan></text></g><g id="classid-BulkData-251" class="classGroup " transform="translate(1575.4750061035156,794.75 )"><rect x="0" y="0" width="100.0999984741211" height="48"></rect><text y="15" x="0"><tspan class="title" x="26.474998474121094">BulkData</tspan></text><line x1="0" y1="21.5" y2="21.5" x2="100.0999984741211"></line><text x="5" y="31.5" fill="white" class="classText"></text><line x1="0" y1="26.5" y2="26.5" x2="100.0999984741211"></line><text x="5" y="41.5" fill="white" class="classText"><tspan x="5">+calculate_data()</tspan></text></g><g id="classid-ConvolutedRates-252" class="classGroup " transform="translate(1725.5750045776367,789.75 )"><rect x="0" y="0" width="133.4499969482422" height="58"></rect><text y="15" x="0"><tspan class="title" x="20.724998474121094">ConvolutedRates</tspan></text><line x1="0" y1="21.5" y2="21.5" x2="133.4499969482422"></line><text x="5" y="31.5" fill="white" class="classText"></text><line x1="0" y1="26.5" y2="26.5" x2="133.4499969482422"></line><text x="5" y="41.5" fill="white" class="classText"><tspan x="5">+calculate_data()</tspan><tspan x="5" dy="10">+calculate_convolution()</tspan></text></g><g id="classid-CountedRates-253" class="classGroup " transform="translate(1909.025001525879,769 )"><rect x="0" y="0" width="150.6999969482422" height="99.5"></rect><text y="15" x="0"><tspan class="title" x="37.974998474121094">CountedRates</tspan></text><line x1="0" y1="21.5" y2="21.5" x2="150.6999969482422"></line><text x="5" y="31.5" fill="white" class="classText"><tspan x="5">+bool conserve</tspan><tspan x="5" dy="10">+float gas_number_density</tspan><tspan x="5" dy="10">+float ionization_err</tspan><tspan x="5" dy="10">+float attachment_err</tspan><tspan x="5" dy="10">+float effective_err</tspan></text><line x1="0" y1="78.00000381469727" y2="78.00000381469727" x2="150.6999969482422"></line><text x="5" y="93.00000381469727" fill="white" class="classText"><tspan x="5">+calculate_data()</tspan></text></g><g id="classid-TransportData-254" class="classGroup " transform="translate(1513.7500076293945,962.1500015258789 )"><rect x="0" y="0" width="150.6999969482422" height="82.19999694824219"></rect><text y="15" x="0"><tspan class="title" x="37.39999771118164">TransportData</tspan></text><line x1="0" y1="21.5" y2="21.5" x2="150.6999969482422"></line><text x="5" y="31.5" fill="white" class="classText"><tspan x="5">+float gas_number_density</tspan><tspan x="5" dy="10">+array w</tspan><tspan x="5" dy="10">+array DN</tspan><tspan x="5" dy="10">+array w_err</tspan><tspan x="5" dy="10">+array DN_err</tspan></text><line x1="0" y1="78.00000381469727" y2="78.00000381469727" x2="150.6999969482422"></line><text x="5" y="93.00000381469727" fill="white" class="classText"></text></g><g id="classid-RateCoefficients-255" class="classGroup " transform="translate(1874.0375022888184,972.1499996185303 )"><rect x="0" y="0" width="105.8499984741211" height="62.20000076293945"></rect><text y="15" x="0"><tspan class="title" x="9.224998474121094">RateCoefficients</tspan></text><line x1="0" y1="21.5" y2="21.5" x2="105.8499984741211"></line><text x="5" y="31.5" fill="white" class="classText"><tspan x="5">+float ionization</tspan><tspan x="5" dy="10">+float attachment</tspan><tspan x="5" dy="10">+float effective</tspan></text><line x1="0" y1="58" y2="58" x2="105.8499984741211"></line><text x="5" y="73" fill="white" class="classText"></text></g><path d="M484.20001220703125,125.83508426487359L420.46667734781903,143.94590355406132C356.73334248860675,162.05672284324905,229.26667277018228,198.2783614216245,165.53333791097006,226.38918071081227C101.80000305175781,254.5,101.80000305175781,274.5,101.80000305175781,284.5L101.80000305175781,294.5" id="edge252" class="relation" marker-start="url(#compositionStart)"></path><path d="M484.20001220703125,149.03958989780068L460.33751169840497,163.28299158150057C436.4750111897786,177.52639326520045,388.75001017252606,206.0131966326002,364.8875096638997,245.2565983163001C341.02500915527344,284.5,341.02500915527344,334.5,341.02500915527344,359.5L341.02500915527344,384.5" id="edge253" class="relation" marker-start="url(#compositionStart)"></path><path d="M558.4000091552734,209.5L558.4000091552734,213.66666666666666C558.4000091552734,217.83333333333334,558.4000091552734,226.16666666666666,558.4000091552734,258.6666666666667C558.4000091552734,291.1666666666667,558.4000091552734,347.8333333333333,558.4000091552734,376.1666666666667L558.4000091552734,404.5" id="edge254" class="relation" marker-start="url(#compositionStart)"></path><path d="M632.6000061035156,144.3284156383738L660.775006612142,159.35701303197817C688.9500071207682,174.38561042558254,745.3000081380209,204.44280521279128,773.4750086466471,223.6380692730623C801.6500091552734,242.83333333333334,801.6500091552734,251.16666666666666,801.6500091552734,255.33333333333334L801.6500091552734,259.5" id="edge255" class="relation" marker-start="url(#compositionStart)"></path><path d="M632.6000061035156,114.45435666018172L785.5791727701823,134.46196388348477C938.558339436849,154.4695711067878,1244.5166727701824,194.4847855533939,1397.4958394368489,237.82572611003027C1550.4750061035156,281.1666666666667,1550.4750061035156,327.8333333333333,1550.4750061035156,351.1666666666667L1550.4750061035156,374.5" id="edge256" class="relation" marker-start="url(#compositionStart)"></path><path d="M801.6500091552734,679L801.6500091552734,683.1666666666666C801.6500091552734,687.3333333333334,801.6500091552734,695.6666666666666,801.6500091552734,714.9583333333334C801.6500091552734,734.25,801.6500091552734,764.5,801.6500091552734,779.625L801.6500091552734,794.75" id="edge257" class="relation" marker-start="url(#compositionStart)"></path><path d="M801.6500091552734,842.75L801.6500091552734,857.875C801.6500091552734,873,801.6500091552734,903.25,828.035426457723,926.1935241394755C854.4208437601725,949.137048278951,907.1916783650717,964.774096557902,933.5770956675211,972.5926206973776L959.9625129699707,980.4111448368532" id="edge258" class="relation" marker-start="url(#extensionStart)"></path><path d="M1404.9750061035156,535.2808837717279L1343.0125071207683,563.4007364764399C1281.0500081380208,591.5205891811519,1157.1250101725261,647.760294590576,1095.1625111897786,680.0468139619546C1033.2000122070312,712.3333333333334,1033.2000122070312,720.6666666666666,1033.2000122070312,724.8333333333334L1033.2000122070312,729" id="edge259" class="relation" marker-start="url(#compositionStart)"></path><path d="M1438.2482241385787,564L1410.6110218956744,587.3333333333334C1382.9738196527699,610.6666666666666,1327.6994151669612,657.3333333333334,1300.0622129240567,693.1666666666666C1272.4250106811523,729,1272.4250106811523,754,1272.4250106811523,766.5L1272.4250106811523,779" id="edge260" class="relation" marker-start="url(#compositionStart)"></path><path d="M1520.1832598725828,564L1512.7235510382282,587.3333333333334C1505.2638422038735,610.6666666666666,1490.3444245351645,657.3333333333334,1482.8847157008097,695.7916666666666C1475.425006866455,734.25,1475.425006866455,764.5,1475.425006866455,779.625L1475.425006866455,794.75" id="edge261" class="relation" marker-start="url(#compositionStart)"></path><path d="M1580.7667523344485,564L1588.226461168803,587.3333333333334C1595.6861700031577,610.6666666666666,1610.6055876718667,657.3333333333334,1618.0652965062216,695.7916666666666C1625.5250053405762,734.25,1625.5250053405762,764.5,1625.5250053405762,779.625L1625.5250053405762,794.75" id="edge262" class="relation" marker-start="url(#compositionStart)"></path><path d="M1648.0806225501437,564L1672.1171859670794,587.3333333333334C1696.153749384015,610.6666666666666,1744.2268762178865,657.3333333333334,1768.2634396348221,694.9583333333334C1792.3000030517578,732.5833333333334,1792.3000030517578,761.1666666666666,1792.3000030517578,775.4583333333334L1792.3000030517578,789.75" id="edge263" class="relation" marker-start="url(#compositionStart)"></path><path d="M1695.9750061035156,547.9688879475962L1744.0416717529297,573.9740732896635C1792.1083374023438,599.9792586317308,1888.2416687011719,651.9896293158654,1936.308334350586,688.8281479912661C1984.375,725.6666666666666,1984.375,747.3333333333334,1984.375,758.1666666666666L1984.375,769" id="edge264" class="relation" marker-start="url(#compositionStart)"></path><path d="M1272.4250106811523,858.5L1272.4250106811523,871C1272.4250106811523,883.5,1272.4250106811523,908.5,1246.0395933787029,928.8185241394755C1219.6541760762532,949.137048278951,1166.8833414713542,964.774096557902,1140.4979241689045,972.5926206973776L1114.112506866455,980.4111448368532" id="edge265" class="relation" marker-start="url(#extensionStart)"></path><path d="M1475.425006866455,842.75L1475.425006866455,857.875C1475.425006866455,873,1475.425006866455,903.25,1483.207059200018,923.1500002543131C1490.9891115335806,943.0500005086263,1506.5532162007066,952.6000010172526,1514.3352685342695,957.3750012715658L1522.1173208678324,962.1500015258789" id="edge266" class="relation" marker-start="url(#extensionStart)"></path><path d="M1625.5250053405762,842.75L1625.5250053405762,857.875C1625.5250053405762,873,1625.5250053405762,903.25,1623.0313941488869,923.1500002543131C1620.5377829571978,943.0500005086263,1615.5505605738192,952.6000010172526,1613.0569493821304,957.3750012715658L1610.563338190441,962.1500015258789" id="edge267" class="relation" marker-start="url(#extensionStart)"></path><path d="M1792.3000030517578,847.75L1792.3000030517578,862.0416666666666C1792.3000030517578,876.3333333333334,1792.3000030517578,904.9166666666666,1805.9229195912678,926.2644806601515C1819.545836130778,947.6122946536365,1846.791669209798,961.7245893072728,1860.4145857493083,968.7807366340911L1874.0375022888184,975.8368839609092" id="edge268" class="relation" marker-start="url(#extensionStart)"></path><path d="M1984.375,868.5L1984.375,879.3333333333334C1984.375,890.1666666666666,1984.375,911.8333333333334,1979.0727466090236,929.108333269755C1973.770493218047,946.3833332061768,1963.1659864360943,959.2666664123535,1957.8637330451177,965.7083330154419L1952.5614796541413,972.1499996185303" id="edge269" class="relation" marker-start="url(#extensionStart)"></path></svg>